exports[`Search matches the snapshot 1`] = `
<form
  onSubmit={undefined}>
  <input
    onChange={[Function]}
    type="text"
    value="query" />
  <button
    className={undefined}
    onClick={undefined}
    type="submit">
    Search
  </button>
</form>
`;
