exports[`App matches the snapshot 1`] = `
<div
  className="page">
  <div
    className="interactions">
    <form
      onSubmit={[Function]}>
      <input
        onChange={[Function]}
        type="text"
        value="redux" />
      <button
        className={undefined}
        onClick={undefined}
        type="submit">
        Search
      </button>
    </form>
  </div>
  <div
    className="interactions">
    <i
      className="fa fa-spinner fa-spin" />
  </div>
</div>
`;
